%YAML 1.1
%TAG !u! tag:unity3d.com,2011:
--- !u!1 &8201349375942392004
GameObject:
  m_ObjectHideFlags: 0
  m_CorrespondingSourceObject: {fileID: 0}
  m_PrefabInstance: {fileID: 0}
  m_PrefabAsset: {fileID: 0}
  serializedVersion: 6
  m_Component:
  - component: {fileID: 6991359407090870646}
  - component: {fileID: 271536385942286760}
  - component: {fileID: 1531155306058416053}
  m_Layer: 0
  m_Name: PurplePulse
  m_TagString: Untagged
  m_Icon: {fileID: 0}
  m_NavMeshLayer: 0
  m_StaticEditorFlags: 0
  m_IsActive: 1
--- !u!4 &6991359407090870646
Transform:
  m_ObjectHideFlags: 0
  m_CorrespondingSourceObject: {fileID: 0}
  m_PrefabInstance: {fileID: 0}
  m_PrefabAsset: {fileID: 0}
  m_GameObject: {fileID: 8201349375942392004}
  m_LocalRotation: {x: 0, y: 0, z: 0, w: 1}
  m_LocalPosition: {x: 1119.439, y: 459.81665, z: -64.77147}
  m_LocalScale: {x: 1, y: 1, z: 1}
  m_Children:
  - {fileID: 96593590261984492}
  m_Father: {fileID: 0}
  m_RootOrder: 0
  m_LocalEulerAnglesHint: {x: 0, y: 0, z: 0}
--- !u!114 &271536385942286760
MonoBehaviour:
  m_ObjectHideFlags: 0
  m_CorrespondingSourceObject: {fileID: 0}
  m_PrefabInstance: {fileID: 0}
  m_PrefabAsset: {fileID: 0}
  m_GameObject: {fileID: 8201349375942392004}
  m_Enabled: 1
  m_EditorHideFlags: 0
  m_Script: {fileID: 11500000, guid: a5e645644660aa948886f0cf8271b0d8, type: 3}
  m_Name: 
  m_EditorClassIdentifier: 
  ID: 0
  RareUpgrade: 0
  Name: Name
  Description: Description
  GM: {fileID: 0}
  TimeSinceLast: 0
  TimeBetween: 0
  Pulse: {fileID: 96593590261984491}
  Charged: 0
--- !u!212 &1531155306058416053
SpriteRenderer:
  m_ObjectHideFlags: 0
  m_CorrespondingSourceObject: {fileID: 0}
  m_PrefabInstance: {fileID: 0}
  m_PrefabAsset: {fileID: 0}
  m_GameObject: {fileID: 8201349375942392004}
  m_Enabled: 0
  m_CastShadows: 0
  m_ReceiveShadows: 0
  m_DynamicOccludee: 1
  m_MotionVectors: 1
  m_LightProbeUsage: 1
  m_ReflectionProbeUsage: 1
  m_RayTracingMode: 0
  m_RayTraceProcedural: 0
  m_RenderingLayerMask: 1
  m_RendererPriority: 0
  m_Materials:
  - {fileID: 10754, guid: 0000000000000000f000000000000000, type: 0}
  m_StaticBatchInfo:
    firstSubMesh: 0
    subMeshCount: 0
  m_StaticBatchRoot: {fileID: 0}
  m_ProbeAnchor: {fileID: 0}
  m_LightProbeVolumeOverride: {fileID: 0}
  m_ScaleInLightmap: 1
  m_ReceiveGI: 1
  m_PreserveUVs: 0
  m_IgnoreNormalsForChartDetection: 0
  m_ImportantGI: 0
  m_StitchLightmapSeams: 1
  m_SelectedEditorRenderState: 0
  m_MinimumChartSize: 4
  m_AutoUVMaxDistance: 0.5
  m_AutoUVMaxAngle: 89
  m_LightmapParameters: {fileID: 0}
  m_SortingLayerID: 109144159
  m_SortingLayer: 3
  m_SortingOrder: 0
  m_Sprite: {fileID: 21300000, guid: d0cb0bf9c3c16a240a8e61f6670cb902, type: 3}
  m_Color: {r: 1, g: 1, b: 1, a: 1}
  m_FlipX: 0
  m_FlipY: 0
  m_DrawMode: 0
  m_Size: {x: 1, y: 1}
  m_AdaptiveModeThreshold: 0.5
  m_SpriteTileMode: 0
  m_WasSpriteAssigned: 1
  m_MaskInteraction: 0
  m_SpriteSortPoint: 0
--- !u!1001 &2126549574712694372
PrefabInstance:
  m_ObjectHideFlags: 0
  serializedVersion: 2
  m_Modification:
    m_TransformParent: {fileID: 6991359407090870646}
    m_Modifications:
    - target: {fileID: 2077336773060934280, guid: ba32bb0950b59ed4fb4b9768634cbab2, type: 3}
      propertyPath: m_RootOrder
      value: 0
      objectReference: {fileID: 0}
    - target: {fileID: 2077336773060934280, guid: ba32bb0950b59ed4fb4b9768634cbab2, type: 3}
      propertyPath: m_LocalPosition.x
      value: 0
      objectReference: {fileID: 0}
    - target: {fileID: 2077336773060934280, guid: ba32bb0950b59ed4fb4b9768634cbab2, type: 3}
      propertyPath: m_LocalPosition.y
      value: 0
      objectReference: {fileID: 0}
    - target: {fileID: 2077336773060934280, guid: ba32bb0950b59ed4fb4b9768634cbab2, type: 3}
      propertyPath: m_LocalPosition.z
      value: 0
      objectReference: {fileID: 0}
    - target: {fileID: 2077336773060934280, guid: ba32bb0950b59ed4fb4b9768634cbab2, type: 3}
      propertyPath: m_LocalRotation.w
      value: 1
      objectReference: {fileID: 0}
    - target: {fileID: 2077336773060934280, guid: ba32bb0950b59ed4fb4b9768634cbab2, type: 3}
      propertyPath: m_LocalRotation.x
      value: 0
      objectReference: {fileID: 0}
    - target: {fileID: 2077336773060934280, guid: ba32bb0950b59ed4fb4b9768634cbab2, type: 3}
      propertyPath: m_LocalRotation.y
      value: 0
      objectReference: {fileID: 0}
    - target: {fileID: 2077336773060934280, guid: ba32bb0950b59ed4fb4b9768634cbab2, type: 3}
      propertyPath: m_LocalRotation.z
      value: 0
      objectReference: {fileID: 0}
    - target: {fileID: 2077336773060934280, guid: ba32bb0950b59ed4fb4b9768634cbab2, type: 3}
      propertyPath: m_LocalEulerAnglesHint.x
      value: 0
      objectReference: {fileID: 0}
    - target: {fileID: 2077336773060934280, guid: ba32bb0950b59ed4fb4b9768634cbab2, type: 3}
      propertyPath: m_LocalEulerAnglesHint.y
      value: 0
      objectReference: {fileID: 0}
    - target: {fileID: 2077336773060934280, guid: ba32bb0950b59ed4fb4b9768634cbab2, type: 3}
      propertyPath: m_LocalEulerAnglesHint.z
      value: 0
      objectReference: {fileID: 0}
    - target: {fileID: 2077336773060934286, guid: ba32bb0950b59ed4fb4b9768634cbab2, type: 3}
      propertyPath: m_Name
      value: PulseAnimator
      objectReference: {fileID: 0}
    m_RemovedComponents: []
  m_SourcePrefab: {fileID: 100100000, guid: ba32bb0950b59ed4fb4b9768634cbab2, type: 3}
--- !u!4 &96593590261984492 stripped
Transform:
  m_CorrespondingSourceObject: {fileID: 2077336773060934280, guid: ba32bb0950b59ed4fb4b9768634cbab2, type: 3}
  m_PrefabInstance: {fileID: 2126549574712694372}
  m_PrefabAsset: {fileID: 0}
--- !u!95 &96593590261984491 stripped
Animator:
  m_CorrespondingSourceObject: {fileID: 2077336773060934287, guid: ba32bb0950b59ed4fb4b9768634cbab2, type: 3}
  m_PrefabInstance: {fileID: 2126549574712694372}
  m_PrefabAsset: {fileID: 0}
